0.46173808962858676, 0.00334509538041148
1.7340459278351807, 0.0000012559771289067422
1.8045535720438612, 9.697787342664255e-7
1.8117601285860834, 3.922752388197865e-7
1.8045535720438604, 1.4557029975044588e-7
1.8045535720438604, 1.123993246291459e-7
1.6075820460746455, 6.558227274512511e-8
1.2259441878687403, 8.678699019474595e-8
0.9537242876850616, 1.5529234386762555e-7
0.7814063295584114, 2.4416922538601297e-7
0.6351395693981995, 3.757272694904793e-7
0.5287457941982537, 5.5377880301408e-7
0.4297730429672498, 7.487961140295772e-7
0.3874675120456132, 9.288690179174236e-7
