0.5130354969456068, 0.002026100043337585
0.5419922236427063, 0.0018537746756435288
0.5709489503398059, 0.0016293959368426638
0.5995503797768182, 0.001451771492138781
0.6331259708550503, 0.0012528603510461225
0.6672345078234132, 0.0011039921894581489
0.6954806400003384, 0.0010003337920272348
0.7290562310785704, 0.0008692384124854055
0.7648701948953511, 0.0007649489123068312
0.7962074132350345, 0.0007327569566840418
0.8361783549948345, 0.0006661881342889421
0.8450861648727328, 0.0005641780984173178
0.8622927036112373, 0.0005184249926090213
0.897111835099774, 0.00046567211937074515
0.9305097775479625, 0.0004768160678384824
0.9620868215382046, 0.0004584119687804827
1.0008586350452107, 0.0004104139003156822
1.037098955574096, 0.0003719433716899109
1.0648121418608907, 0.00034071323010806436
1.0823993562352026, 0.00028465697132772755
1.1015854082799066, 0.00026974373336397667
1.1351609993581386, 0.0002713292827827212
1.165005969205456, 0.00022920090762525654
1.1671377527659788, 0.00021217873359336383
1.2063092756905827, 0.00025064888637540007
1.2406842856040108, 0.0002165461529464435
1.2715951472315894, 0.00017308140768612691
1.3206261691236107, 0.00015288037364105957
1.3548869763462965, 0.00014311657058118125
1.390975026620859, 0.0001336734830153021
1.4253500365342868, 0.0001363403981229091
1.4602579923378456, 0.0001481576262822196
1.488104415097173, 0.00013924603582182217
1.4935466125521613, 0.00011870949444910683
1.5239069586448795, 0.00017453308246203274
1.514085527241043, 0.00013966464251846585
1.512486689570651, 0.00011795725773120204
1.557254144341627, 0.00016091071488678104
1.570044845704763, 0.00014025317975736626
1.574841358715939, 0.00012571608544550405
1.570044845704763, 0.00011437188359789985
1.621207651157307, 0.00014255591978111934
1.6511495202573754, 0.00011693532887894077
1.6419925408724032, 0.00014054234814235263
1.6569150257960616, 0.00011133817439270508
1.681963482632203, 0.00012344803097480496
1.6872929415335098, 0.00015803331774523772
1.686759995643379, 0.00019012344230278196
1.7075448853584752, 0.0002048746439579972
1.7373898552057925, 0.00019607399714478846
1.7557231938262874, 0.00016252706238980378
1.753911177799843, 0.00014427435122968865
1.7807716506624287, 0.00020204223728799653
1.7746960675149392, 0.00017140088537107677
1.8066728209227791, 0.00022376144234188223
1.8335332937853648, 0.00020393139549811106
1.8525061674740166, 0.00017623936413417097
1.8684945441779368, 0.00014578636722268975
1.8738240030792432, 0.00013131183576930134
1.8908782715634247, 0.00011088827137384438
1.9409751852357073, 0.00010888046029578848
1.966556587961979, 0.00010889004252704171
2.0086183174445997, 0.00011132322701907942
2.0273124194368757, 0.0001351253280241676
2.064725220924048, 0.0001409930380457264
2.0624868481854994, 0.0001628533775444008
2.0944636015933398, 0.00013287394228434743
2.133400001331121, 0.00012033446576388222
2.168649669499528, 0.00013699501324968875
2.1967892124984276, 0.00013526005408861852
2.228552787550215, 0.00011867752553686655
2.2589662330136724, 0.0001393900743407508
2.2911206350515556, 0.00013846697836916968
2.3236303343495264, 0.00011719741414612716
2.338857359781831, 0.00014190492732431734
2.3630683302191953, 0.00016015351762252564
2.3870508952750757, 0.00019327618327946193
2.3838532199342914, 0.0001620417054190353
2.4073028391000406, 0.00023975171980980463
2.440878430178273, 0.00027363292843283685
2.4632621575637614, 0.00021956723854018906
2.4589985904427154, 0.0002706119451528722
2.49168593837073, 0.000189341078225548
2.503766045213692, 0.0001806279260684656
2.521124854206519, 0.0002007731524668709
2.5453358246438835, 0.00023056639234444716
2.577312578051724, 0.00018946373101354845
2.567719552029372, 0.0002281953367076893
2.608862974747459, 0.00015505894718011298
2.6339114315836003, 0.00016965353358870645
2.6508591108897557, 0.0002046355841781329
2.685678242378293, 0.0002055651864357752
2.722207241930999, 0.0001905173064578587
2.723872697837657, 0.00016573343483231823
2.7385667773798312, 0.0002345950235658196
2.7426780742465535, 0.0002822897170911068
2.770086720024702, 0.00031598493532620153
2.804347527247388, 0.0003416414107599832
2.804347527247388, 0.00042115370022595584
2.8325936594243135, 0.00028007986113680604
2.823533579292092, 0.0003400535835151952
2.881091735426204, 0.00029325311736693805
2.9018766251413, 0.0003637099698203273
2.9018766251413, 0.0003027413200386915
2.9322545408787484, 0.0004475407692698671
2.954638268264236, 0.0004571639952858196
2.958749565130958, 0.00039288685290599643
2.97382432030894, 0.00034708350749980497
3.0049483602925706, 0.0002797838580470872
3.012196424398348, 0.00034322039167909
3.0281848011022676, 0.0002882428275105564
3.0460384884216447, 0.0006211824771535516
3.039376664795012, 0.0003925056299651244
3.031382476443052, 0.00033237390413692154
3.0598708567518553, 0.0006967610971826442
3.056164460334128, 0.00045237720470539154
3.054832095608801, 0.0005025853564538999
3.0652778350553618, 0.0008319120590943441
3.076749495340425, 0.0010429887756508629
3.0649580675212844, 0.0005659071667346052
3.0914003828393053, 0.001261911706625801
3.079347606554812, 0.0009215038415638496
3.1145220353034357, 0.001446623460746409
3.1480976263816682, 0.001490565187629186
3.1572546057666404, 0.0010215250267206235
3.1608883277448045, 0.0008501984068628043
3.1592894900744124, 0.00127378360370674
3.167461327056416, 0.0007398797965577815
3.17367902910794, 0.0006371757197063855
3.183957271274746, 0.000558328395571762
3.202458107174996, 0.00048466592957442954
3.344754659839884, 0.0006353265843947962
3.3824872288611356, 0.0006725170360084447
3.3975163029628206, 0.0009727297108670085
3.399115140633212, 0.0007671314342505537
3.410307004325956, 0.00121745476753466
3.43748724472262, 0.001456342837604638
3.456673296767324, 0.0015685435731886655
3.483054118328792, 0.0014609160677693043
3.5007301570181264, 0.0012606737754505826
3.5042831296189974, 0.0011386272500781209
3.536033784770418, 0.001274753938046888
3.544609368638884, 0.001518419393630179
3.551004719320453, 0.0017030802330341235
3.5653942583539804, 0.0019892749076028744
3.593773627003438, 0.002137220707790514
3.6261500898288768, 0.002179094125012998
3.6282818733893993, 0.001909428071618477
3.637341953521621, 0.0016903248300707539
3.650932073719953, 0.0013904081276249723
3.6832514352000194, 0.0014629873455954355
3.6885047589741644, 0.0016310537511735042
3.702894298007693, 0.0020381171824758646
3.7476617527786686, 0.0023393080163315763
3.7745222256412543, 0.0027842644406899787
3.771644317834549, 0.0030753964295757987
3.808417584253565, 0.002581974861438063
3.8448710831385027, 0.00271883119520208
3.8758352393550943, 0.0025188712211385994
3.9047475538946825, 0.002540611217954579
3.9390654624627395, 0.0027330973050737986
3.963276432900104, 0.002932836175489192
3.969900188963157, 0.003570285941850958
3.9842897279966847, 0.004461167664631683
4.019464156745309, 0.004855291411340104
4.054638585493933, 0.005231613881449306
4.081818825890597, 0.004978051779404167
4.098340148484648, 0.004365992466296448
4.107799938034467, 0.004072169203079235
4.145239386816146, 0.004571438133037102
4.174551410773333, 0.005005084166242927
4.211324677192349, 0.005682175384802562
4.24685440320106, 0.0063080733336635724
4.278475859348813, 0.006965427455183682
4.316847963438221, 0.007947696794158314
4.353088283967106, 0.008886725778925403
4.382400307924293, 0.009786557512253928
4.415975899002525, 0.011264386985531708
4.450350908915953, 0.012694524519201505
4.478330568147813, 0.014047875540909284
4.515103834566829, 0.016212234313665808
4.546166966448731, 0.01838194316722117
4.57106315303055, 0.020326603700406863
4.601441068767997, 0.024047347609258606
4.628621309164662, 0.02732308885925824
4.651005036550149, 0.030367767973908468
4.684580627628382, 0.03627819339309677
4.713359705695438, 0.042630276203514006
4.73300256850311, 0.048714885047959434
4.753185298576111, 0.05700459339072877
4.774115537170333, 0.06713692552200107
4.789647103111284, 0.07432670066439456
4.813717516390812, 0.0882768341003204
4.83487136864523, 0.1055944286679781
4.846748448482427, 0.117076418461915
4.866557424294816, 0.14133260853867277
4.885120552571835, 0.17089769795393278
4.901108929275756, 0.19250274689479754
4.917720229747361, 0.2265787915465524
4.932720234073219, 0.26623304910988566
4.940394654891102, 0.2957287815822841
4.954784193924629, 0.34557848274316455
4.972371408298941, 0.4010561182477461
4.97476966480453, 0.455558859357749
